[gd_scene load_steps=5 format=2]

[ext_resource path="res://Platformer Kit/chestDouble.glb" type="PackedScene" id=1]
[ext_resource path="res://Platformer Scene/Items/Bonus/UpArrow.glb" type="PackedScene" id=2]
[ext_resource path="res://Object/scripts/AddingRange.gd" type="Script" id=3]

[sub_resource type="BoxShape" id=1]

[node name="AddingBombArea" type="Area"]
script = ExtResource( 3 )

[node name="chestDouble" parent="." instance=ExtResource( 1 )]

[node name="CollisionShape" type="CollisionShape" parent="."]
transform = Transform( 0.25, 0, 0, 0, 1, 0, 0, 0, 0.25, 0, 0, 0 )
shape = SubResource( 1 )

[node name="UpArrow" parent="." instance=ExtResource( 2 )]
transform = Transform( 0.25, 0, 0, 0, 0.25, 0, 0, 0, 0.422, 0, 0.5, 0 )
[connection signal="body_entered" from="." to="." method="_on_AddingBombArea_body_entered"]
