# Blender v2.90.1 OBJ File: ''
# www.blender.org
mtllib Barrel.mtl
o barrel_Mesh_barrel.001
v -0.178271 0.400160 -0.073842
v -0.198079 0.320128 -0.082047
v -0.073842 0.400160 -0.178271
v -0.082047 0.320128 -0.198079
v 0.198079 0.320128 0.082047
v 0.178271 0.400160 0.073842
v 0.198079 0.320128 -0.082047
v 0.178271 0.400160 -0.073842
v 0.115638 0.024010 -0.047899
v 0.128487 0.000000 -0.053221
v 0.047899 0.024010 -0.115638
v 0.053221 0.000000 -0.128487
v -0.198079 0.320128 0.082047
v -0.198079 0.320128 -0.082047
v -0.178271 0.400160 0.073842
v -0.178271 0.400160 -0.073842
v 0.217887 0.134045 -0.090252
v 0.217887 0.266115 -0.090252
v 0.090252 0.134045 -0.217887
v 0.090252 0.266115 -0.217887
v 0.198079 0.080032 0.082047
v 0.198079 0.080032 -0.082047
v 0.180072 0.000000 0.074588
v 0.180072 0.000000 -0.074588
v 0.047899 0.376150 -0.115638
v -0.047899 0.376150 -0.115638
v 0.053221 0.400160 -0.128487
v -0.053221 0.400160 -0.128487
v 0.074588 0.000000 -0.180072
v 0.180072 0.000000 -0.074588
v 0.082047 0.080032 -0.198079
v 0.198079 0.080032 -0.082047
v 0.053221 0.000000 0.128487
v 0.128487 0.000000 0.053221
v 0.047899 0.024010 0.115638
v 0.115638 0.024010 0.047899
v 0.090252 0.134045 0.217887
v 0.090252 0.266115 0.217887
v 0.217887 0.134045 0.090252
v 0.217887 0.266115 0.090252
v 0.115638 0.376150 -0.047899
v 0.047899 0.376150 -0.115638
v 0.128487 0.400160 -0.053221
v 0.053221 0.400160 -0.128487
v 0.074588 0.000000 0.180072
v -0.074588 0.000000 0.180072
v 0.082047 0.080032 0.198079
v -0.082047 0.080032 0.198079
v 0.217887 0.134045 0.090252
v 0.217887 0.266115 0.090252
v 0.217887 0.134045 -0.090252
v 0.217887 0.266115 -0.090252
v -0.082047 0.080032 0.198079
v -0.074588 0.000000 0.180072
v -0.198079 0.080032 0.082047
v -0.180072 0.000000 0.074588
v -0.180072 0.000000 0.074588
v -0.128487 0.000000 -0.053221
v -0.180072 0.000000 -0.074588
v -0.074588 0.000000 -0.180072
v -0.053221 0.000000 -0.128487
v 0.074588 0.000000 -0.180072
v 0.053221 0.000000 -0.128487
v 0.128487 0.000000 -0.053221
v 0.180072 0.000000 -0.074588
v 0.128487 0.000000 0.053221
v -0.128487 0.000000 0.053221
v -0.074588 0.000000 0.180072
v -0.053221 0.000000 0.128487
v 0.074588 0.000000 0.180072
v 0.053221 0.000000 0.128487
v 0.180072 0.000000 0.074588
v -0.178271 0.400160 -0.073842
v -0.128487 0.400160 0.053221
v -0.178271 0.400160 0.073842
v -0.073842 0.400160 0.178271
v -0.053221 0.400160 0.128487
v 0.073842 0.400160 0.178271
v 0.053221 0.400160 0.128487
v 0.128487 0.400160 0.053221
v 0.178271 0.400160 0.073842
v 0.128487 0.400160 -0.053221
v -0.128487 0.400160 -0.053221
v -0.073842 0.400160 -0.178271
v -0.053221 0.400160 -0.128487
v 0.073842 0.400160 -0.178271
v 0.053221 0.400160 -0.128487
v 0.178271 0.400160 -0.073842
v 0.178271 0.400160 -0.073842
v 0.073842 0.400160 -0.178271
v 0.198079 0.320128 -0.082047
v 0.082047 0.320128 -0.198079
v -0.082047 0.320128 -0.198079
v 0.082047 0.320128 -0.198079
v -0.073842 0.400160 -0.178271
v 0.073842 0.400160 -0.178271
v -0.074588 0.000000 -0.180072
v 0.074588 0.000000 -0.180072
v -0.082047 0.080032 -0.198079
v 0.082047 0.080032 -0.198079
v -0.180072 0.000000 -0.074588
v -0.074588 0.000000 -0.180072
v -0.198079 0.080032 -0.082047
v -0.082047 0.080032 -0.198079
v -0.090252 0.266115 0.217887
v -0.090252 0.134045 0.217887
v -0.217887 0.266115 0.090252
v -0.217887 0.134045 0.090252
v 0.180072 0.000000 0.074588
v 0.074588 0.000000 0.180072
v 0.198079 0.080032 0.082047
v 0.082047 0.080032 0.198079
v -0.198079 0.080032 0.082047
v -0.180072 0.000000 0.074588
v -0.198079 0.080032 -0.082047
v -0.180072 0.000000 -0.074588
v -0.090252 0.134045 -0.217887
v 0.090252 0.134045 -0.217887
v -0.090252 0.266115 -0.217887
v 0.090252 0.266115 -0.217887
v -0.053221 0.000000 0.128487
v 0.053221 0.000000 0.128487
v -0.047899 0.024010 0.115638
v 0.047899 0.024010 0.115638
v -0.053221 0.000000 -0.128487
v -0.128487 0.000000 -0.053221
v -0.047899 0.024010 -0.115638
v -0.115638 0.024010 -0.047899
v 0.053221 0.000000 -0.128487
v -0.053221 0.000000 -0.128487
v 0.047899 0.024010 -0.115638
v -0.047899 0.024010 -0.115638
v 0.090252 0.134045 0.217887
v -0.090252 0.134045 0.217887
v 0.090252 0.266115 0.217887
v -0.090252 0.266115 0.217887
v -0.053221 0.000000 0.128487
v -0.047899 0.024010 0.115638
v -0.128487 0.000000 0.053221
v -0.115638 0.024010 0.047899
v -0.115638 0.376150 0.047899
v -0.047899 0.376150 0.115638
v -0.128487 0.400160 0.053221
v -0.053221 0.400160 0.128487
v 0.198079 0.320128 0.082047
v 0.082047 0.320128 0.198079
v 0.178271 0.400160 0.073842
v 0.073842 0.400160 0.178271
v -0.082047 0.320128 0.198079
v -0.198079 0.320128 0.082047
v -0.073842 0.400160 0.178271
v -0.178271 0.400160 0.073842
v 0.082047 0.320128 0.198079
v -0.082047 0.320128 0.198079
v 0.073842 0.400160 0.178271
v -0.073842 0.400160 0.178271
v -0.047899 0.376150 0.115638
v 0.047899 0.376150 0.115638
v -0.053221 0.400160 0.128487
v 0.053221 0.400160 0.128487
v -0.217887 0.134045 -0.090252
v -0.090252 0.134045 -0.217887
v -0.217887 0.266115 -0.090252
v -0.090252 0.266115 -0.217887
v -0.047899 0.376150 -0.115638
v -0.115638 0.376150 -0.047899
v -0.053221 0.400160 -0.128487
v -0.128487 0.400160 -0.053221
v -0.128487 0.400160 0.053221
v -0.128487 0.400160 -0.053221
v -0.115638 0.376150 0.047899
v -0.115638 0.376150 -0.047899
v 0.128487 0.000000 0.053221
v 0.128487 0.000000 -0.053221
v 0.115638 0.024010 0.047899
v 0.115638 0.024010 -0.047899
v -0.128487 0.000000 0.053221
v -0.115638 0.024010 0.047899
v -0.128487 0.000000 -0.053221
v -0.115638 0.024010 -0.047899
v -0.217887 0.266115 0.090252
v -0.217887 0.134045 0.090252
v -0.217887 0.266115 -0.090252
v -0.217887 0.134045 -0.090252
v 0.128487 0.400160 0.053221
v 0.115638 0.376150 0.047899
v 0.128487 0.400160 -0.053221
v 0.115638 0.376150 -0.047899
v 0.053221 0.400160 0.128487
v 0.047899 0.376150 0.115638
v 0.128487 0.400160 0.053221
v 0.115638 0.376150 0.047899
v -0.073842 0.400160 -0.178271
v -0.198079 0.320128 -0.082047
v -0.178271 0.400160 -0.073842
v -0.082047 0.320128 -0.198079
v 0.198079 0.320128 -0.082047
v 0.178271 0.400160 0.073842
v 0.198079 0.320128 0.082047
v 0.178271 0.400160 -0.073842
v 0.047899 0.024010 -0.115638
v 0.128487 0.000000 -0.053221
v 0.115638 0.024010 -0.047899
v 0.053221 0.000000 -0.128487
v -0.178271 0.400160 0.073842
v -0.198079 0.320128 -0.082047
v -0.198079 0.320128 0.082047
v -0.178271 0.400160 -0.073842
v -0.047899 0.024010 -0.115638
v -0.115638 0.024010 0.047899
v -0.115638 0.024010 -0.047899
v -0.047899 0.024010 0.115638
v 0.047899 0.024010 -0.115638
v 0.047899 0.024010 0.115638
v 0.115638 0.024010 -0.047899
v 0.115638 0.024010 0.047899
v 0.090252 0.134045 -0.217887
v 0.217887 0.266115 -0.090252
v 0.217887 0.134045 -0.090252
v 0.090252 0.266115 -0.217887
v 0.180072 0.000000 0.074588
v 0.198079 0.080032 -0.082047
v 0.198079 0.080032 0.082047
v 0.180072 0.000000 -0.074588
v 0.053221 0.400160 -0.128487
v -0.047899 0.376150 -0.115638
v 0.047899 0.376150 -0.115638
v -0.053221 0.400160 -0.128487
v 0.082047 0.080032 -0.198079
v 0.180072 0.000000 -0.074588
v 0.074588 0.000000 -0.180072
v 0.198079 0.080032 -0.082047
v 0.047899 0.024010 0.115638
v 0.128487 0.000000 0.053221
v 0.053221 0.000000 0.128487
v 0.115638 0.024010 0.047899
v 0.217887 0.134045 0.090252
v 0.090252 0.266115 0.217887
v 0.090252 0.134045 0.217887
v 0.217887 0.266115 0.090252
v 0.128487 0.400160 -0.053221
v 0.047899 0.376150 -0.115638
v 0.115638 0.376150 -0.047899
v 0.053221 0.400160 -0.128487
v 0.082047 0.080032 0.198079
v -0.074588 0.000000 0.180072
v 0.074588 0.000000 0.180072
v -0.082047 0.080032 0.198079
v 0.217887 0.134045 -0.090252
v 0.217887 0.266115 0.090252
v 0.217887 0.134045 0.090252
v 0.217887 0.266115 -0.090252
v -0.198079 0.080032 0.082047
v -0.074588 0.000000 0.180072
v -0.082047 0.080032 0.198079
v -0.180072 0.000000 0.074588
v -0.180072 0.000000 -0.074588
v -0.128487 0.000000 -0.053221
v -0.180072 0.000000 0.074588
v -0.074588 0.000000 -0.180072
v -0.053221 0.000000 -0.128487
v 0.074588 0.000000 -0.180072
v 0.053221 0.000000 -0.128487
v 0.128487 0.000000 -0.053221
v 0.180072 0.000000 -0.074588
v 0.128487 0.000000 0.053221
v -0.128487 0.000000 0.053221
v -0.074588 0.000000 0.180072
v -0.053221 0.000000 0.128487
v 0.074588 0.000000 0.180072
v 0.053221 0.000000 0.128487
v 0.180072 0.000000 0.074588
v -0.178271 0.400160 0.073842
v -0.128487 0.400160 0.053221
v -0.178271 0.400160 -0.073842
v -0.073842 0.400160 0.178271
v -0.053221 0.400160 0.128487
v 0.073842 0.400160 0.178271
v 0.053221 0.400160 0.128487
v 0.128487 0.400160 0.053221
v 0.178271 0.400160 0.073842
v 0.128487 0.400160 -0.053221
v -0.128487 0.400160 -0.053221
v -0.073842 0.400160 -0.178271
v -0.053221 0.400160 -0.128487
v 0.073842 0.400160 -0.178271
v 0.053221 0.400160 -0.128487
v 0.178271 0.400160 -0.073842
v 0.198079 0.320128 -0.082047
v 0.073842 0.400160 -0.178271
v 0.178271 0.400160 -0.073842
v 0.082047 0.320128 -0.198079
v -0.073842 0.400160 -0.178271
v 0.082047 0.320128 -0.198079
v -0.082047 0.320128 -0.198079
v 0.073842 0.400160 -0.178271
v -0.082047 0.080032 -0.198079
v 0.074588 0.000000 -0.180072
v -0.074588 0.000000 -0.180072
v 0.082047 0.080032 -0.198079
v -0.198079 0.080032 -0.082047
v -0.074588 0.000000 -0.180072
v -0.180072 0.000000 -0.074588
v -0.082047 0.080032 -0.198079
v -0.217887 0.266115 0.090252
v -0.090252 0.134045 0.217887
v -0.090252 0.266115 0.217887
v -0.217887 0.134045 0.090252
v 0.198079 0.080032 0.082047
v 0.074588 0.000000 0.180072
v 0.180072 0.000000 0.074588
v 0.082047 0.080032 0.198079
v -0.198079 0.080032 -0.082047
v -0.180072 0.000000 0.074588
v -0.198079 0.080032 0.082047
v -0.180072 0.000000 -0.074588
v -0.090252 0.266115 -0.217887
v 0.090252 0.134045 -0.217887
v -0.090252 0.134045 -0.217887
v 0.090252 0.266115 -0.217887
v -0.047899 0.024010 0.115638
v 0.053221 0.000000 0.128487
v -0.053221 0.000000 0.128487
v 0.047899 0.024010 0.115638
v -0.047899 0.024010 -0.115638
v -0.128487 0.000000 -0.053221
v -0.053221 0.000000 -0.128487
v -0.115638 0.024010 -0.047899
v 0.047899 0.024010 -0.115638
v -0.053221 0.000000 -0.128487
v 0.053221 0.000000 -0.128487
v -0.047899 0.024010 -0.115638
v 0.090252 0.266115 0.217887
v -0.090252 0.134045 0.217887
v 0.090252 0.134045 0.217887
v -0.090252 0.266115 0.217887
v -0.128487 0.000000 0.053221
v -0.047899 0.024010 0.115638
v -0.053221 0.000000 0.128487
v -0.115638 0.024010 0.047899
v -0.128487 0.400160 0.053221
v -0.047899 0.376150 0.115638
v -0.115638 0.376150 0.047899
v -0.053221 0.400160 0.128487
v 0.178271 0.400160 0.073842
v 0.082047 0.320128 0.198079
v 0.198079 0.320128 0.082047
v 0.073842 0.400160 0.178271
v -0.073842 0.400160 0.178271
v -0.198079 0.320128 0.082047
v -0.082047 0.320128 0.198079
v -0.178271 0.400160 0.073842
v 0.073842 0.400160 0.178271
v -0.082047 0.320128 0.198079
v 0.082047 0.320128 0.198079
v -0.073842 0.400160 0.178271
v 0.090252 0.134045 0.217887
v -0.082047 0.080032 0.198079
v 0.082047 0.080032 0.198079
v -0.090252 0.134045 0.217887
v -0.217887 0.134045 -0.090252
v -0.198079 0.080032 0.082047
v -0.217887 0.134045 0.090252
v -0.198079 0.080032 -0.082047
v -0.053221 0.400160 0.128487
v 0.047899 0.376150 0.115638
v -0.047899 0.376150 0.115638
v 0.053221 0.400160 0.128487
v 0.082047 0.080032 -0.198079
v 0.217887 0.134045 -0.090252
v 0.198079 0.080032 -0.082047
v 0.090252 0.134045 -0.217887
v -0.217887 0.134045 0.090252
v -0.082047 0.080032 0.198079
v -0.090252 0.134045 0.217887
v -0.198079 0.080032 0.082047
v 0.082047 0.320128 0.198079
v -0.090252 0.266115 0.217887
v 0.090252 0.266115 0.217887
v -0.082047 0.320128 0.198079
v -0.082047 0.320128 -0.198079
v 0.090252 0.266115 -0.217887
v -0.090252 0.266115 -0.217887
v 0.082047 0.320128 -0.198079
v -0.090252 0.134045 -0.217887
v 0.082047 0.080032 -0.198079
v -0.082047 0.080032 -0.198079
v 0.090252 0.134045 -0.217887
v 0.198079 0.080032 0.082047
v 0.217887 0.134045 -0.090252
v 0.217887 0.134045 0.090252
v 0.198079 0.080032 -0.082047
v -0.217887 0.266115 -0.090252
v -0.090252 0.134045 -0.217887
v -0.217887 0.134045 -0.090252
v -0.090252 0.266115 -0.217887
v -0.082047 0.320128 -0.198079
v -0.217887 0.266115 -0.090252
v -0.198079 0.320128 -0.082047
v -0.090252 0.266115 -0.217887
v -0.053221 0.400160 -0.128487
v -0.115638 0.376150 -0.047899
v -0.047899 0.376150 -0.115638
v -0.128487 0.400160 -0.053221
v -0.115638 0.376150 0.047899
v -0.128487 0.400160 -0.053221
v -0.128487 0.400160 0.053221
v -0.115638 0.376150 -0.047899
v -0.082047 0.320128 0.198079
v -0.217887 0.266115 0.090252
v -0.090252 0.266115 0.217887
v -0.198079 0.320128 0.082047
v 0.198079 0.320128 0.082047
v 0.090252 0.266115 0.217887
v 0.217887 0.266115 0.090252
v 0.082047 0.320128 0.198079
v -0.217887 0.134045 -0.090252
v -0.082047 0.080032 -0.198079
v -0.198079 0.080032 -0.082047
v -0.090252 0.134045 -0.217887
v -0.047899 0.376150 0.115638
v -0.115638 0.376150 -0.047899
v -0.115638 0.376150 0.047899
v -0.047899 0.376150 -0.115638
v 0.047899 0.376150 0.115638
v 0.047899 0.376150 -0.115638
v 0.115638 0.376150 0.047899
v 0.115638 0.376150 -0.047899
v 0.217887 0.266115 -0.090252
v 0.198079 0.320128 0.082047
v 0.217887 0.266115 0.090252
v 0.198079 0.320128 -0.082047
v 0.217887 0.134045 0.090252
v 0.082047 0.080032 0.198079
v 0.198079 0.080032 0.082047
v 0.090252 0.134045 0.217887
v 0.115638 0.024010 0.047899
v 0.128487 0.000000 -0.053221
v 0.128487 0.000000 0.053221
v 0.115638 0.024010 -0.047899
v 0.217887 0.266115 -0.090252
v 0.082047 0.320128 -0.198079
v 0.198079 0.320128 -0.082047
v 0.090252 0.266115 -0.217887
v -0.128487 0.000000 -0.053221
v -0.115638 0.024010 0.047899
v -0.128487 0.000000 0.053221
v -0.115638 0.024010 -0.047899
v -0.217887 0.266115 -0.090252
v -0.217887 0.134045 0.090252
v -0.217887 0.266115 0.090252
v -0.217887 0.134045 -0.090252
v -0.198079 0.320128 0.082047
v -0.217887 0.266115 -0.090252
v -0.217887 0.266115 0.090252
v -0.198079 0.320128 -0.082047
v 0.128487 0.400160 -0.053221
v 0.115638 0.376150 0.047899
v 0.128487 0.400160 0.053221
v 0.115638 0.376150 -0.047899
v 0.128487 0.400160 0.053221
v 0.047899 0.376150 0.115638
v 0.053221 0.400160 0.128487
v 0.115638 0.376150 0.047899
v -0.115638 0.024010 -0.047899
v -0.115638 0.024010 0.047899
v -0.047899 0.024010 -0.115638
v -0.047899 0.024010 0.115638
v 0.047899 0.024010 -0.115638
v 0.047899 0.024010 0.115638
v 0.115638 0.024010 -0.047899
v 0.115638 0.024010 0.047899
v -0.115638 0.376150 0.047899
v -0.115638 0.376150 -0.047899
v -0.047899 0.376150 0.115638
v -0.047899 0.376150 -0.115638
v 0.047899 0.376150 0.115638
v 0.047899 0.376150 -0.115638
v 0.115638 0.376150 0.047899
v 0.115638 0.376150 -0.047899
v 0.082047 0.080032 0.198079
v -0.082047 0.080032 0.198079
v 0.090252 0.134045 0.217887
v -0.090252 0.134045 0.217887
v -0.217887 0.134045 0.090252
v -0.198079 0.080032 0.082047
v -0.217887 0.134045 -0.090252
v -0.198079 0.080032 -0.082047
v 0.198079 0.080032 -0.082047
v 0.217887 0.134045 -0.090252
v 0.082047 0.080032 -0.198079
v 0.090252 0.134045 -0.217887
v -0.090252 0.134045 0.217887
v -0.082047 0.080032 0.198079
v -0.217887 0.134045 0.090252
v -0.198079 0.080032 0.082047
v 0.090252 0.266115 0.217887
v -0.090252 0.266115 0.217887
v 0.082047 0.320128 0.198079
v -0.082047 0.320128 0.198079
v -0.090252 0.266115 -0.217887
v 0.090252 0.266115 -0.217887
v -0.082047 0.320128 -0.198079
v 0.082047 0.320128 -0.198079
v -0.082047 0.080032 -0.198079
v 0.082047 0.080032 -0.198079
v -0.090252 0.134045 -0.217887
v 0.090252 0.134045 -0.217887
v 0.217887 0.134045 0.090252
v 0.217887 0.134045 -0.090252
v 0.198079 0.080032 0.082047
v 0.198079 0.080032 -0.082047
v -0.198079 0.320128 -0.082047
v -0.217887 0.266115 -0.090252
v -0.082047 0.320128 -0.198079
v -0.090252 0.266115 -0.217887
v -0.090252 0.266115 0.217887
v -0.217887 0.266115 0.090252
v -0.082047 0.320128 0.198079
v -0.198079 0.320128 0.082047
v 0.217887 0.266115 0.090252
v 0.090252 0.266115 0.217887
v 0.198079 0.320128 0.082047
v 0.082047 0.320128 0.198079
v -0.198079 0.080032 -0.082047
v -0.082047 0.080032 -0.198079
v -0.217887 0.134045 -0.090252
v -0.090252 0.134045 -0.217887
v 0.217887 0.266115 0.090252
v 0.198079 0.320128 0.082047
v 0.217887 0.266115 -0.090252
v 0.198079 0.320128 -0.082047
v 0.198079 0.080032 0.082047
v 0.082047 0.080032 0.198079
v 0.217887 0.134045 0.090252
v 0.090252 0.134045 0.217887
v 0.198079 0.320128 -0.082047
v 0.082047 0.320128 -0.198079
v 0.217887 0.266115 -0.090252
v 0.090252 0.266115 -0.217887
v -0.217887 0.266115 0.090252
v -0.217887 0.266115 -0.090252
v -0.198079 0.320128 0.082047
v -0.198079 0.320128 -0.082047
vt 7.089449 2.936547
vt 5.058536 2.095315
vt 7.089449 -2.936547
vt 2.936547 7.089449
vt 2.095315 5.058536
vt -2.936547 7.089449
vt -2.095315 5.058536
vt -5.058536 2.095315
vt -7.089449 2.936547
vt -5.058536 -2.095315
vt 5.058536 -2.095315
vt 2.936547 -7.089449
vt 2.095315 -5.058536
vt -2.936547 -7.089449
vt -2.095315 -5.058536
vt -7.089449 -2.936547
vt -7.018555 -2.907181
vt -5.058536 -2.095315
vt -7.018555 2.907181
vt -2.907181 -7.018555
vt -2.095315 -5.058536
vt 2.907181 -7.018555
vt 2.095315 -5.058536
vt 5.058536 -2.095315
vt 7.018555 -2.907181
vt 5.058536 2.095315
vt -5.058536 2.095315
vt -2.907181 7.018555
vt -2.095315 5.058536
vt 2.907181 7.018555
vt 2.095315 5.058536
vt 7.018555 2.907181
vt -2.907182 13.606692
vt 3.230201 10.360756
vt 2.907179 13.606691
vt -3.230202 10.360755
vt 3.230197 10.360750
vt -2.907181 13.606688
vt -3.230201 10.360750
vt 2.907181 13.606688
vt -1.885781 -1.314684
vt 2.095313 -2.386787
vt 1.885781 -1.314684
vt -2.095313 -2.386787
vt 2.907181 13.606688
vt -3.230197 10.360750
vt 3.230201 10.360750
vt -2.907181 13.606688
vt 3.553220 5.277354
vt -3.553220 10.476976
vt -3.553220 5.277354
vt 3.553220 10.476976
vt -2.936547 1.556221
vt 3.230197 4.785858
vt -3.230201 4.785858
vt 2.936547 1.556221
vt 2.095315 16.277185
vt -1.885783 15.205082
vt 1.885783 15.205082
vt -2.095315 16.277185
vt 3.230203 4.785851
vt -2.936545 1.556213
vt 2.936545 1.556213
vt -3.230203 4.785851
vt 1.885786 -1.314680
vt -2.095312 -2.386783
vt 2.095315 -2.386782
vt -1.885780 -1.314680
vt 3.553220 5.277354
vt -3.553220 10.476976
vt -3.553220 5.277354
vt 3.553220 10.476976
vt 2.095313 16.277185
vt -1.885781 15.205083
vt 1.885781 15.205083
vt -2.095313 16.277185
vt 3.230197 4.785858
vt -2.936547 1.556221
vt 2.936547 1.556221
vt -3.230201 4.785858
vt 3.553221 5.277354
vt -3.553221 10.476976
vt -3.553221 5.277354
vt 3.553221 10.476976
vt -3.230200 4.785857
vt 2.936545 1.556219
vt 3.230200 4.785857
vt -2.936545 1.556219
vt -3.230203 10.360760
vt 2.907181 13.606696
vt -2.907181 13.606696
vt 3.230203 10.360760
vt 2.907181 13.606688
vt -3.230197 10.360750
vt 3.230201 10.360750
vt -2.907181 13.606688
vt 3.230201 4.785858
vt -2.936547 1.556221
vt 2.936547 1.556221
vt -3.230197 4.785858
vt 3.230201 4.785853
vt -2.936547 1.556216
vt 2.936543 1.556216
vt -3.230202 4.785854
vt -3.553220 10.476976
vt 3.553220 5.277354
vt 3.553220 10.476976
vt -3.553220 5.277354
vt 3.230202 4.785854
vt -2.936543 1.556216
vt 2.936547 1.556216
vt -3.230201 4.785853
vt -3.230197 4.785858
vt 2.936547 1.556221
vt 3.230201 4.785858
vt -2.936547 1.556221
vt 3.553221 10.476976
vt -3.553221 5.277354
vt 3.553221 5.277354
vt -3.553221 10.476976
vt 1.885783 -1.314672
vt -2.095315 -2.386773
vt 2.095315 -2.386773
vt -1.885783 -1.314672
vt 1.885780 -1.314680
vt -2.095315 -2.386782
vt 2.095312 -2.386783
vt -1.885786 -1.314680
vt 1.885783 -1.314685
vt -2.095315 -2.386788
vt 2.095315 -2.386788
vt -1.885783 -1.314685
vt 3.553221 10.476976
vt -3.553221 5.277354
vt 3.553221 5.277354
vt -3.553221 10.476976
vt 2.095313 -2.386777
vt -1.885784 -1.314676
vt -2.095313 -2.386777
vt 1.885784 -1.314676
vt 2.095313 16.277193
vt -1.885784 15.205091
vt 1.885784 15.205091
vt -2.095313 16.277193
vt 2.907182 13.606692
vt -3.230201 10.360756
vt 3.230202 10.360755
vt -2.907179 13.606691
vt 2.907181 13.606688
vt -3.230200 10.360750
vt 3.230200 10.360750
vt -2.907181 13.606688
vt 2.907181 13.606688
vt -3.230201 10.360750
vt 3.230197 10.360750
vt -2.907181 13.606688
vt 2.095315 16.277195
vt -1.885783 15.205093
vt 1.885783 15.205093
vt -2.095315 16.277195
vt 3.553220 10.476976
vt -3.553220 5.277354
vt 3.553220 5.277354
vt -3.553220 10.476976
vt 2.095312 16.277189
vt -1.885786 15.205087
vt 1.885780 15.205087
vt -2.095315 16.277189
vt -1.885783 15.205093
vt 2.095315 16.277195
vt -2.095315 16.277195
vt 1.885783 15.205093
vt 1.885783 -1.314685
vt -2.095315 -2.386788
vt 2.095315 -2.386788
vt -1.885783 -1.314685
vt 2.095315 -2.386773
vt -1.885783 -1.314672
vt -2.095315 -2.386773
vt 1.885783 -1.314672
vt -3.553221 10.476976
vt 3.553221 5.277354
vt 3.553221 10.476976
vt -3.553221 5.277354
vt -2.095315 16.277185
vt 1.885783 15.205082
vt 2.095315 16.277185
vt -1.885783 15.205082
vt -2.095312 16.277189
vt 1.885786 15.205087
vt 2.095315 16.277189
vt -1.885780 15.205087
vt 4.552685 1.885783
vt 4.552685 -1.885783
vt 1.885783 4.552681
vt 1.885783 -4.552685
vt -1.885783 4.552681
vt -1.885783 -4.552685
vt -4.552681 1.885783
vt -4.552681 -1.885783
vt 7.089449 -2.936547
vt 5.058536 2.095315
vt 7.089449 2.936547
vt 2.936547 7.089449
vt 2.095315 5.058536
vt -2.936547 7.089449
vt -2.095315 5.058536
vt -5.058536 2.095315
vt -7.089449 2.936547
vt -5.058536 -2.095315
vt 5.058536 -2.095315
vt 2.936547 -7.089449
vt 2.095315 -5.058536
vt -2.936547 -7.089449
vt -2.095315 -5.058536
vt -7.089449 -2.936547
vt -7.018555 2.907181
vt -5.058536 -2.095315
vt -7.018555 -2.907181
vt -2.907181 -7.018555
vt -2.095315 -5.058536
vt 2.907181 -7.018555
vt 2.095315 -5.058536
vt 5.058536 -2.095315
vt 7.018555 -2.907181
vt 5.058536 2.095315
vt -5.058536 2.095315
vt -2.907181 7.018555
vt -2.095315 5.058536
vt 2.907181 7.018555
vt 2.095315 5.058536
vt 7.018555 2.907181
vt -4.552685 -1.885783
vt -4.552685 1.885783
vt -1.885783 -4.552685
vt -1.885783 4.552681
vt 1.885783 -4.552685
vt 1.885783 4.552681
vt 4.552681 -1.885783
vt 4.552681 1.885783
vt 2.907179 13.606691
vt 3.230201 10.360756
vt -2.907182 13.606692
vt -3.230202 10.360755
vt -3.230201 10.360750
vt -2.907181 13.606688
vt 3.230197 10.360750
vt 2.907181 13.606688
vt 1.885781 -1.314684
vt 2.095313 -2.386787
vt -1.885781 -1.314684
vt -2.095313 -2.386787
vt 3.230201 10.360750
vt -3.230197 10.360750
vt 2.907181 13.606688
vt -2.907181 13.606688
vt -3.553220 5.277354
vt -3.553220 10.476976
vt 3.553220 5.277354
vt 3.553220 10.476976
vt -3.230201 4.785858
vt 3.230197 4.785858
vt -2.936547 1.556221
vt 2.936547 1.556221
vt 1.885783 15.205082
vt -1.885783 15.205082
vt 2.095315 16.277185
vt -2.095315 16.277185
vt 2.936545 1.556213
vt -2.936545 1.556213
vt 3.230203 4.785851
vt -3.230203 4.785851
vt 2.095315 -2.386782
vt -2.095312 -2.386783
vt 1.885786 -1.314680
vt -1.885780 -1.314680
vt -3.553220 5.277354
vt -3.553220 10.476976
vt 3.553220 5.277354
vt 3.553220 10.476976
vt 1.885781 15.205083
vt -1.885781 15.205083
vt 2.095313 16.277185
vt -2.095313 16.277185
vt 2.936547 1.556221
vt -2.936547 1.556221
vt 3.230197 4.785858
vt -3.230201 4.785858
vt -3.553221 5.277354
vt -3.553221 10.476976
vt 3.553221 5.277354
vt 3.553221 10.476976
vt 3.230200 4.785857
vt 2.936545 1.556219
vt -3.230200 4.785857
vt -2.936545 1.556219
vt -2.907181 13.606696
vt 2.907181 13.606696
vt -3.230203 10.360760
vt 3.230203 10.360760
vt 3.230201 10.360750
vt -3.230197 10.360750
vt 2.907181 13.606688
vt -2.907181 13.606688
vt 2.936547 1.556221
vt -2.936547 1.556221
vt 3.230201 4.785858
vt -3.230197 4.785858
vt 2.936543 1.556216
vt -2.936547 1.556216
vt 3.230201 4.785853
vt -3.230202 4.785854
vt 3.553220 10.476976
vt 3.553220 5.277354
vt -3.553220 10.476976
vt -3.553220 5.277354
vt 2.936547 1.556216
vt -2.936543 1.556216
vt 3.230202 4.785854
vt -3.230201 4.785853
vt 3.230201 4.785858
vt 2.936547 1.556221
vt -3.230197 4.785858
vt -2.936547 1.556221
vt 3.553221 5.277354
vt -3.553221 5.277354
vt 3.553221 10.476976
vt -3.553221 10.476976
vt 2.095315 -2.386773
vt -2.095315 -2.386773
vt 1.885783 -1.314672
vt -1.885783 -1.314672
vt 2.095312 -2.386783
vt -2.095315 -2.386782
vt 1.885780 -1.314680
vt -1.885786 -1.314680
vt 2.095315 -2.386788
vt -2.095315 -2.386788
vt 1.885783 -1.314685
vt -1.885783 -1.314685
vt 3.553221 5.277354
vt -3.553221 5.277354
vt 3.553221 10.476976
vt -3.553221 10.476976
vt -2.095313 -2.386777
vt -1.885784 -1.314676
vt 2.095313 -2.386777
vt 1.885784 -1.314676
vt 1.885784 15.205091
vt -1.885784 15.205091
vt 2.095313 16.277193
vt -2.095313 16.277193
vt 3.230202 10.360755
vt -3.230201 10.360756
vt 2.907182 13.606692
vt -2.907179 13.606691
vt 3.230200 10.360750
vt -3.230200 10.360750
vt 2.907181 13.606688
vt -2.907181 13.606688
vt 3.230197 10.360750
vt -3.230201 10.360750
vt 2.907181 13.606688
vt -2.907181 13.606688
vt 3.230197 5.643233
vt -3.230201 5.643233
vt 3.553221 7.908206
vt -3.553221 7.908206
vt 3.553221 7.908206
vt 3.230201 5.643233
vt -3.553221 7.908206
vt -3.230197 5.643233
vt 1.885783 15.205093
vt -1.885783 15.205093
vt 2.095315 16.277195
vt -2.095315 16.277195
vt -3.230203 5.643239
vt -3.553220 7.908213
vt 3.230203 5.643239
vt 3.553220 7.908213
vt 3.553220 7.908206
vt 3.230200 5.643233
vt -3.553220 7.908206
vt -3.230200 5.643233
vt 3.553221 6.882878
vt -3.553221 6.882878
vt 3.230197 9.147851
vt -3.230201 9.147851
vt 3.553221 6.882878
vt -3.553221 6.882878
vt 3.230201 9.147851
vt -3.230197 9.147851
vt 3.230201 5.643233
vt -3.230197 5.643233
vt 3.553221 7.908206
vt -3.553221 7.908206
vt -3.553221 7.908206
vt 3.553221 7.908206
vt -3.230201 5.643233
vt 3.230197 5.643233
vt 3.553220 5.277354
vt -3.553220 5.277354
vt 3.553220 10.476976
vt -3.553220 10.476976
vt 3.230201 9.147845
vt 3.553218 6.882872
vt -3.230202 9.147844
vt -3.553222 6.882872
vt 1.885780 15.205087
vt -1.885786 15.205087
vt 2.095312 16.277189
vt -2.095315 16.277189
vt -2.095315 16.277195
vt 2.095315 16.277195
vt -1.885783 15.205093
vt 1.885783 15.205093
vt 3.553220 6.882878
vt -3.553220 6.882878
vt 3.230200 9.147851
vt -3.230200 9.147851
vt 3.553222 6.882872
vt -3.553218 6.882872
vt 3.230202 9.147844
vt -3.230201 9.147845
vt 3.230201 5.643236
vt -3.230202 5.643237
vt 3.553218 7.908210
vt -3.553222 7.908209
vt -3.553221 6.882878
vt -3.230201 9.147851
vt 3.553221 6.882878
vt 3.230197 9.147851
vt 3.230202 5.643237
vt -3.230201 5.643236
vt 3.553222 7.908209
vt -3.553218 7.908210
vt 2.095315 -2.386788
vt -2.095315 -2.386788
vt 1.885783 -1.314685
vt -1.885783 -1.314685
vt -3.230203 9.147839
vt 3.230203 9.147839
vt -3.553220 6.882865
vt 3.553220 6.882865
vt -2.095315 -2.386773
vt -1.885783 -1.314672
vt 2.095315 -2.386773
vt 1.885783 -1.314672
vt 3.553221 10.476976
vt 3.553221 5.277354
vt -3.553221 10.476976
vt -3.553221 5.277354
vt 3.553221 6.882878
vt -3.553221 6.882878
vt 3.230201 9.147851
vt -3.230197 9.147851
vt 2.095315 16.277185
vt 1.885783 15.205082
vt -2.095315 16.277185
vt -1.885783 15.205082
vt 2.095315 16.277189
vt 1.885786 15.205087
vt -2.095312 16.277189
vt -1.885780 15.205087
vt 1.885783 4.552681
vt 4.552685 -1.885783
vt 4.552685 1.885783
vt 1.885783 -4.552685
vt -1.885783 4.552681
vt -1.885783 -4.552685
vt -4.552681 1.885783
vt -4.552681 -1.885783
vt -1.885783 -4.552685
vt -4.552685 1.885783
vt -4.552685 -1.885783
vt -1.885783 4.552681
vt 1.885783 -4.552685
vt 1.885783 4.552681
vt 4.552681 -1.885783
vt 4.552681 1.885783
vt 3.553221 7.908206
vt -3.230201 5.643233
vt 3.230197 5.643233
vt -3.553221 7.908206
vt -3.553221 7.908206
vt 3.230201 5.643233
vt 3.553221 7.908206
vt -3.230197 5.643233
vt 3.230203 5.643239
vt -3.553220 7.908213
vt -3.230203 5.643239
vt 3.553220 7.908213
vt -3.553220 7.908206
vt 3.230200 5.643233
vt 3.553220 7.908206
vt -3.230200 5.643233
vt 3.230197 9.147851
vt -3.553221 6.882878
vt 3.553221 6.882878
vt -3.230201 9.147851
vt 3.230201 9.147851
vt -3.553221 6.882878
vt 3.553221 6.882878
vt -3.230197 9.147851
vt 3.553221 7.908206
vt -3.230197 5.643233
vt 3.230201 5.643233
vt -3.553221 7.908206
vt -3.230201 5.643233
vt 3.553221 7.908206
vt -3.553221 7.908206
vt 3.230197 5.643233
vt -3.230202 9.147844
vt 3.553218 6.882872
vt 3.230201 9.147845
vt -3.553222 6.882872
vt 3.230200 9.147851
vt -3.553220 6.882878
vt 3.553220 6.882878
vt -3.230200 9.147851
vt 3.230202 9.147844
vt -3.553218 6.882872
vt 3.553222 6.882872
vt -3.230201 9.147845
vt 3.553218 7.908210
vt -3.230202 5.643237
vt 3.230201 5.643236
vt -3.553222 7.908209
vt 3.553221 6.882878
vt -3.230201 9.147851
vt -3.553221 6.882878
vt 3.230197 9.147851
vt 3.553222 7.908209
vt -3.230201 5.643236
vt 3.230202 5.643237
vt -3.553218 7.908210
vt -3.553220 6.882865
vt 3.230203 9.147839
vt -3.230203 9.147839
vt 3.553220 6.882865
vt 3.230201 9.147851
vt -3.553221 6.882878
vt 3.553221 6.882878
vt -3.230197 9.147851
vn 0.0000 -1.0000 0.0000
vn 0.0000 1.0000 0.0000
vn -0.6864 0.2403 -0.6864
vn -0.6753 0.2967 -0.6753
vn 0.9550 0.2967 0.0000
vn 0.9707 0.2403 0.0000
vn -0.3312 -0.5012 0.7994
vn -0.7994 -0.5012 0.3312
vn -0.9707 0.2403 0.0000
vn -0.9550 0.2967 0.0000
vn 0.6972 -0.1666 -0.6972
vn 0.6972 0.1666 -0.6972
vn 0.9756 -0.2195 0.0000
vn 0.9579 -0.2871 -0.0000
vn -0.3311 0.5012 0.7995
vn 0.3311 0.5012 0.7994
vn -0.3311 0.5012 0.7994
vn 0.3311 0.5012 0.7995
vn 0.6773 -0.2871 -0.6773
vn 0.6899 -0.2195 -0.6899
vn -0.3312 -0.5012 -0.7994
vn -0.7994 -0.5012 -0.3312
vn -0.3312 -0.5012 -0.7995
vn 0.6972 -0.1666 0.6972
vn 0.6972 0.1666 0.6972
vn -0.7994 0.5012 0.3312
vn -0.3312 0.5012 0.7994
vn 0.0000 -0.2871 0.9579
vn 0.0000 -0.2195 0.9756
vn 0.9860 -0.1666 0.0000
vn 0.9860 0.1666 -0.0000
vn -0.6773 -0.2871 0.6773
vn -0.6899 -0.2195 0.6899
vn 0.6753 0.2967 -0.6753
vn 0.6864 0.2402 -0.6864
vn 0.0000 0.2403 -0.9707
vn -0.0000 0.2967 -0.9550
vn -0.0000 -0.2871 -0.9579
vn 0.0000 -0.2195 -0.9756
vn -0.6773 -0.2871 -0.6773
vn -0.6899 -0.2195 -0.6899
vn -0.6972 0.1666 0.6972
vn -0.6972 -0.1666 0.6972
vn 0.6773 -0.2871 0.6773
vn 0.6899 -0.2195 0.6899
vn -0.9579 -0.2871 -0.0000
vn -0.9756 -0.2195 0.0000
vn 0.0000 0.1666 -0.9860
vn -0.0000 -0.1666 -0.9860
vn 0.3311 -0.5012 -0.7995
vn -0.3311 -0.5012 -0.7995
vn 0.3312 -0.5012 0.7994
vn 0.7994 -0.5012 0.3312
vn -0.3311 -0.5012 0.7994
vn 0.3311 -0.5012 0.7995
vn -0.3311 -0.5012 0.7995
vn 0.3311 -0.5012 0.7994
vn -0.0000 0.1666 0.9860
vn 0.0000 -0.1666 0.9860
vn 0.7995 -0.5012 -0.3312
vn 0.3312 -0.5012 -0.7994
vn 0.3312 -0.5012 -0.7995
vn 0.7994 -0.5012 -0.3312
vn 0.7995 0.5012 -0.3312
vn 0.3312 0.5012 -0.7994
vn 0.7994 0.5012 -0.3312
vn 0.6864 0.2403 0.6864
vn 0.6753 0.2967 0.6753
vn 0.6864 0.2402 0.6864
vn -0.6864 0.2403 0.6864
vn -0.6753 0.2967 0.6753
vn 0.0000 0.2403 0.9707
vn 0.0000 0.2967 0.9550
vn 0.3311 0.5012 -0.7995
vn -0.3311 0.5012 -0.7995
vn -0.6972 0.1666 -0.6972
vn -0.6972 -0.1666 -0.6972
vn 0.3312 0.5012 0.7994
vn 0.7994 0.5012 0.3312
vn 0.7995 0.5012 0.3312
vn 0.7995 0.5012 -0.3311
vn 0.7995 0.5012 0.3311
vn -0.7994 -0.5012 -0.3311
vn -0.7995 -0.5012 0.3311
vn -0.7995 -0.5012 -0.3311
vn -0.7994 -0.5012 0.3311
vn 0.7995 -0.5012 0.3311
vn 0.7995 -0.5012 -0.3311
vn -0.9860 0.1666 0.0000
vn -0.9860 -0.1666 -0.0000
vn -0.7995 0.5012 0.3311
vn -0.7994 0.5012 -0.3311
vn -0.7995 0.5012 -0.3311
vn -0.7994 0.5012 0.3311
vn -0.7994 0.5012 -0.3312
vn -0.3312 0.5012 -0.7994
vn 0.6864 -0.2402 0.6864
vn 0.6753 -0.2967 0.6753
vn 0.6864 -0.2403 0.6864
vn -0.9550 -0.2967 -0.0000
vn -0.9707 -0.2403 0.0000
vn 0.3312 0.5012 -0.7995
vn 0.9550 -0.2967 -0.0000
vn 0.9707 -0.2403 0.0000
vn -0.9579 0.2871 -0.0000
vn -0.9756 0.2195 0.0000
vn 0.3311 -0.5012 -0.7994
vn -0.3311 -0.5012 -0.7994
vn -0.6899 0.2195 0.6899
vn -0.6773 0.2871 0.6773
vn 0.3312 0.5012 0.7995
vn 0.0000 0.2195 -0.9756
vn -0.0000 0.2871 -0.9579
vn 0.6773 0.2871 -0.6773
vn 0.6899 0.2195 -0.6899
vn -0.6864 -0.2402 0.6864
vn -0.6753 -0.2967 0.6753
vn 0.0000 -0.2967 0.9550
vn 0.0000 -0.2403 0.9707
vn 0.0000 0.2195 0.9756
vn 0.0000 0.2871 0.9579
vn 0.6899 0.2195 0.6899
vn 0.6773 0.2871 0.6773
vn -0.6899 0.2195 -0.6899
vn -0.6773 0.2871 -0.6773
vn 0.9579 0.2871 -0.0000
vn 0.9756 0.2195 0.0000
vn -0.3312 0.5012 -0.7995
vn -0.7995 0.5012 -0.3312
vn 0.3311 0.5012 -0.7994
vn -0.3311 0.5012 -0.7994
vn -0.3312 0.5012 0.7995
vn -0.7995 0.5012 0.3312
vn -0.7995 -0.5012 0.3312
vn -0.3312 -0.5012 0.7995
vn -0.6753 -0.2967 -0.6753
vn -0.6864 -0.2403 -0.6864
vn -0.6864 -0.2402 -0.6864
vn 0.6753 -0.2967 -0.6753
vn 0.6864 -0.2403 -0.6864
vn -0.0000 -0.2967 -0.9550
vn 0.0000 -0.2403 -0.9707
vn 0.0000 0.2870 -0.9579
vn 0.9579 0.2870 0.0000
vn -0.6773 0.2870 0.6773
vn 0.6773 0.2870 -0.6773
vn 0.6773 0.2870 -0.6774
vn 0.0000 -0.2966 -0.9550
vn -0.0000 -0.2966 0.9550
vn -0.0000 0.2870 0.9579
vn -0.9579 0.2870 0.0000
vn 0.6753 -0.2966 0.6753
vn -0.7995 -0.5012 -0.3312
vn 0.6753 -0.2966 -0.6753
vn -0.6753 -0.2966 -0.6753
vn 0.6773 0.2870 0.6773
vn -0.9550 -0.2966 0.0000
vn -0.6773 0.2870 -0.6774
vn -0.6773 0.2870 -0.6773
vn 0.7994 0.5012 0.3311
vn 0.7994 0.5012 -0.3311
vn -0.6753 -0.2966 0.6753
vn 0.9550 -0.2966 0.0000
vn 0.7994 -0.5012 0.3311
vn 0.7994 -0.5012 -0.3311
vn 0.3312 -0.5012 0.7995
vn 0.7995 -0.5012 0.3312
vn 0.0000 -0.2870 0.9579
vn -0.9579 -0.2870 -0.0000
vn 0.6773 -0.2870 -0.6773
vn -0.6773 -0.2870 0.6773
vn -0.6773 -0.2870 0.6774
vn -0.0000 0.2966 0.9550
vn 0.0000 0.2966 -0.9550
vn -0.0000 -0.2870 -0.9579
vn 0.9579 -0.2870 -0.0000
vn -0.6753 0.2966 -0.6753
vn -0.6753 0.2966 0.6753
vn 0.6753 0.2966 0.6753
vn -0.6773 -0.2870 -0.6773
vn 0.9550 0.2966 -0.0000
vn 0.6773 -0.2870 0.6773
vn 0.6773 -0.2870 0.6774
vn 0.6753 0.2966 -0.6753
vn -0.9550 0.2966 -0.0000
usemtl wood.001
s off
f 59/1/1 58/2/1 57/3/1
f 58/2/1 59/1/1 60/4/1
f 58/2/1 60/4/1 61/5/1
f 61/5/1 60/4/1 62/6/1
f 61/5/1 62/6/1 63/7/1
f 63/7/1 62/6/1 64/8/1
f 64/8/1 62/6/1 65/9/1
f 64/8/1 65/9/1 66/10/1
f 67/11/1 57/3/1 58/2/1
f 57/3/1 67/11/1 68/12/1
f 68/12/1 67/11/1 69/13/1
f 68/12/1 69/13/1 70/14/1
f 70/14/1 69/13/1 71/15/1
f 70/14/1 71/15/1 66/10/1
f 70/14/1 66/10/1 72/16/1
f 72/16/1 66/10/1 65/9/1
f 75/17/2 74/18/2 73/19/2
f 74/18/2 75/17/2 76/20/2
f 74/18/2 76/20/2 77/21/2
f 77/21/2 76/20/2 78/22/2
f 77/21/2 78/22/2 79/23/2
f 79/23/2 78/22/2 80/24/2
f 80/24/2 78/22/2 81/25/2
f 80/24/2 81/25/2 82/26/2
f 83/27/2 73/19/2 74/18/2
f 73/19/2 83/27/2 84/28/2
f 84/28/2 83/27/2 85/29/2
f 84/28/2 85/29/2 86/30/2
f 86/30/2 85/29/2 87/31/2
f 86/30/2 87/31/2 82/26/2
f 86/30/2 82/26/2 88/32/2
f 88/32/2 82/26/2 81/25/2
s 1
f 3/33/3 2/34/4 1/35/3
f 2/34/4 3/33/3 4/36/4
f 7/37/5 6/38/6 5/39/5
f 6/38/6 7/37/5 8/40/6
f 11/41/7 10/42/8 9/43/8
f 10/42/8 11/41/7 12/44/7
f 15/45/9 14/46/10 13/47/10
f 14/46/10 15/45/9 16/48/9
f 19/49/11 18/50/12 17/51/11
f 18/50/12 19/49/11 20/52/12
f 23/53/13 22/54/14 21/55/14
f 22/54/14 23/53/13 24/56/13
f 27/57/15 26/58/16 25/59/17
f 26/58/16 27/57/15 28/60/18
f 31/61/19 30/62/20 29/63/20
f 30/62/20 31/61/19 32/64/19
f 35/65/21 34/66/22 33/67/23
f 34/66/22 35/65/21 36/68/22
f 39/69/24 38/70/25 37/71/24
f 38/70/25 39/69/24 40/72/25
f 43/73/26 42/74/27 41/75/26
f 42/74/27 43/73/26 44/76/27
f 47/77/28 46/78/29 45/79/29
f 46/78/29 47/77/28 48/80/28
f 51/81/30 50/82/31 49/83/30
f 50/82/31 51/81/30 52/84/31
f 55/85/32 54/86/33 53/87/32
f 54/86/33 55/85/32 56/88/33
f 91/89/34 90/90/35 89/91/35
f 90/90/35 91/89/34 92/92/34
f 95/93/36 94/94/37 93/95/37
f 94/94/37 95/93/36 96/96/36
f 99/97/38 98/98/39 97/99/39
f 98/98/39 99/97/38 100/100/38
f 103/101/40 102/102/41 101/103/41
f 102/102/41 103/101/40 104/104/40
f 107/105/42 106/106/43 105/107/42
f 106/106/43 107/105/42 108/108/43
f 111/109/44 110/110/45 109/111/45
f 110/110/45 111/109/44 112/112/44
f 115/113/46 114/114/47 113/115/46
f 114/114/47 115/113/46 116/116/47
f 119/117/48 118/118/49 117/119/49
f 118/118/49 119/117/48 120/120/48
f 123/121/50 122/122/51 121/123/50
f 122/122/51 123/121/50 124/124/51
f 127/125/52 126/126/53 125/127/52
f 126/126/53 127/125/52 128/128/53
f 131/129/54 130/130/55 129/131/56
f 130/130/55 131/129/54 132/132/57
f 135/133/58 134/134/59 133/135/59
f 134/134/59 135/133/58 136/136/58
f 139/137/60 138/138/61 137/139/62
f 138/138/61 139/137/60 140/140/63
f 143/141/64 142/142/65 141/143/66
f 142/142/65 143/141/64 144/144/65
f 147/145/67 146/146/68 145/147/68
f 146/146/68 147/145/67 148/148/69
f 151/149/70 150/150/71 149/151/71
f 150/150/71 151/149/70 152/152/70
f 155/153/72 154/154/73 153/155/73
f 154/154/73 155/153/72 156/156/72
f 159/157/74 158/158/75 157/159/74
f 158/158/75 159/157/74 160/160/75
f 163/161/76 162/162/77 161/163/77
f 162/162/77 163/161/76 164/164/76
f 167/165/78 166/166/79 165/167/78
f 166/166/79 167/165/78 168/168/80
f 171/169/81 170/170/82 169/171/81
f 170/170/82 171/169/81 172/172/82
f 175/173/83 174/174/84 173/175/85
f 174/174/84 175/173/83 176/176/86
f 179/177/87 178/178/88 177/179/88
f 178/178/88 179/177/87 180/180/87
f 183/181/89 182/182/90 181/183/89
f 182/182/90 183/181/89 184/184/90
f 187/185/91 186/186/92 185/187/93
f 186/186/92 187/185/91 188/188/94
f 191/189/95 190/190/96 189/191/96
f 190/190/96 191/189/95 192/192/95
usemtl rock.001
s off
f 211/193/2 210/194/2 209/195/2
f 212/196/2 209/195/2 210/194/2
f 213/197/2 209/195/2 212/196/2
f 214/198/2 213/197/2 212/196/2
f 215/199/2 213/197/2 214/198/2
f 216/200/2 215/199/2 214/198/2
f 259/201/2 258/202/2 257/203/2
f 260/204/2 257/203/2 258/202/2
f 261/205/2 260/204/2 258/202/2
f 262/206/2 260/204/2 261/205/2
f 263/207/2 262/206/2 261/205/2
f 264/208/2 262/206/2 263/207/2
f 265/209/2 262/206/2 264/208/2
f 266/210/2 265/209/2 264/208/2
f 258/202/2 259/201/2 267/211/2
f 268/212/2 267/211/2 259/201/2
f 269/213/2 267/211/2 268/212/2
f 270/214/2 269/213/2 268/212/2
f 271/215/2 269/213/2 270/214/2
f 266/210/2 271/215/2 270/214/2
f 272/216/2 266/210/2 270/214/2
f 265/209/2 266/210/2 272/216/2
f 275/217/1 274/218/1 273/219/1
f 276/220/1 273/219/1 274/218/1
f 277/221/1 276/220/1 274/218/1
f 278/222/1 276/220/1 277/221/1
f 279/223/1 278/222/1 277/221/1
f 280/224/1 278/222/1 279/223/1
f 281/225/1 278/222/1 280/224/1
f 282/226/1 281/225/1 280/224/1
f 274/218/1 275/217/1 283/227/1
f 284/228/1 283/227/1 275/217/1
f 285/229/1 283/227/1 284/228/1
f 286/230/1 285/229/1 284/228/1
f 287/231/1 285/229/1 286/230/1
f 282/226/1 287/231/1 286/230/1
f 288/232/1 282/226/1 286/230/1
f 281/225/1 282/226/1 288/232/1
f 423/233/1 422/234/1 421/235/1
f 424/236/1 421/235/1 422/234/1
f 425/237/1 421/235/1 424/236/1
f 426/238/1 425/237/1 424/236/1
f 427/239/1 425/237/1 426/238/1
f 428/240/1 427/239/1 426/238/1
s 1
f 195/241/97 194/242/98 193/243/99
f 196/244/98 193/243/99 194/242/98
f 199/245/100 198/246/101 197/247/100
f 200/248/101 197/247/100 198/246/101
f 203/249/66 202/250/64 201/251/65
f 204/252/102 201/251/65 202/250/64
f 207/253/103 206/254/103 205/255/104
f 208/256/104 205/255/104 206/254/103
f 219/257/42 218/258/43 217/259/42
f 220/260/43 217/259/42 218/258/43
f 223/261/105 222/262/105 221/263/106
f 224/264/106 221/263/106 222/262/105
f 227/265/107 226/266/108 225/267/50
f 228/268/51 225/267/50 226/266/108
f 231/269/109 230/270/109 229/271/110
f 232/272/110 229/271/110 230/270/109
f 235/273/111 234/274/80 233/275/78
f 236/276/79 233/275/78 234/274/80
f 239/277/76 238/278/77 237/279/76
f 240/280/77 237/279/76 238/278/77
f 243/281/63 242/282/61 241/283/60
f 244/284/62 241/283/60 242/282/61
f 247/285/112 246/286/112 245/287/113
f 248/288/113 245/287/113 246/286/112
f 251/289/89 250/290/90 249/291/89
f 252/292/90 249/291/89 250/290/90
f 255/293/114 254/294/115 253/295/114
f 256/296/115 253/295/114 254/294/115
f 291/297/116 290/298/116 289/299/117
f 292/300/117 289/299/117 290/298/116
f 295/301/118 294/302/118 293/303/119
f 296/304/119 293/303/119 294/302/118
f 299/305/120 298/306/120 297/307/121
f 300/308/121 297/307/121 298/306/120
f 303/309/122 302/310/122 301/311/123
f 304/312/123 301/311/123 302/310/122
f 307/313/11 306/314/12 305/315/11
f 308/316/12 305/315/11 306/314/12
f 311/317/124 310/318/124 309/319/125
f 312/320/125 309/319/125 310/318/124
f 315/321/126 314/322/127 313/323/126
f 316/324/127 313/323/126 314/322/127
f 319/325/58 318/326/58 317/327/59
f 320/328/59 317/327/59 318/326/58
f 323/329/15 322/330/18 321/331/17
f 324/332/16 321/331/17 322/330/18
f 327/333/128 326/334/129 325/335/96
f 328/336/95 325/335/96 326/334/129
f 331/337/74 330/338/75 329/339/130
f 332/340/131 329/339/130 330/338/75
f 335/341/48 334/342/48 333/343/49
f 336/344/49 333/343/49 334/342/48
f 339/345/132 338/346/27 337/347/133
f 340/348/26 337/347/133 338/346/27
f 343/349/8 342/350/7 341/351/134
f 344/352/135 341/351/134 342/350/7
f 347/353/136 346/354/136 345/355/137
f 348/356/138 345/355/137 346/354/136
f 351/357/139 350/358/139 349/359/140
f 352/360/140 349/359/140 350/358/139
f 355/361/141 354/362/141 353/363/142
f 356/364/142 353/363/142 354/362/141
f 359/365/143 358/366/143 357/367/48
f 360/368/48 357/367/48 358/366/143
f 363/369/31 362/370/144 361/371/31
f 364/372/144 361/371/31 362/370/144
f 367/373/54 366/374/57 365/375/56
f 368/376/55 365/375/56 366/374/57
f 371/377/145 370/378/42 369/379/145
f 372/380/42 369/379/145 370/378/42
f 375/381/12 374/382/146 373/383/12
f 376/384/147 373/383/12 374/382/146
f 379/385/49 378/386/49 377/387/148
f 380/388/148 377/387/148 378/386/49
f 383/389/59 382/390/59 381/391/149
f 384/392/149 381/391/149 382/390/59
f 387/393/150 386/394/150 385/395/58
f 388/396/58 385/395/58 386/394/150
f 391/397/89 390/398/89 389/399/151
f 392/400/151 389/399/151 390/398/89
f 395/401/25 394/402/25 393/403/24
f 396/404/24 393/403/24 394/402/25
f 399/405/152 398/406/24 397/407/152
f 400/408/24 397/407/152 398/406/24
f 403/409/21 402/410/83 401/411/23
f 404/412/153 401/411/23 402/410/83
f 407/413/84 406/414/85 405/415/86
f 408/416/83 405/415/86 406/414/85
f 411/417/11 410/418/11 409/419/154
f 412/420/154 409/419/154 410/418/11
f 415/421/77 414/422/77 413/423/155
f 416/424/155 413/423/155 414/422/77
f 419/425/156 418/426/156 417/427/25
f 420/428/25 417/427/25 418/426/156
f 431/429/90 430/430/157 429/431/90
f 432/432/157 429/431/90 430/430/157
f 435/433/158 434/434/159 433/435/76
f 436/436/76 433/435/76 434/434/159
f 439/437/82 438/438/81 437/439/160
f 440/440/161 437/439/160 438/438/81
f 443/441/162 442/442/162 441/443/43
f 444/444/43 441/443/43 442/442/162
f 447/445/91 446/446/94 445/447/93
f 448/448/92 445/447/93 446/446/94
f 451/449/30 450/450/31 449/451/30
f 452/452/31 449/451/30 450/450/31
f 455/453/30 454/454/30 453/455/163
f 456/456/163 453/455/163 454/454/30
f 459/457/87 458/458/164 457/459/88
f 460/460/165 457/459/88 458/458/164
f 463/461/166 462/462/52 461/463/167
f 464/464/53 461/463/167 462/462/52
usemtl woodDark.001
s off
f 467/465/1 466/466/1 465/467/1
f 466/466/1 467/465/1 468/468/1
f 468/468/1 467/465/1 469/469/1
f 468/468/1 469/469/1 470/470/1
f 470/470/1 469/469/1 471/471/1
f 470/470/1 471/471/1 472/472/1
f 475/473/2 474/474/2 473/475/2
f 474/474/2 475/473/2 476/476/2
f 476/476/2 475/473/2 477/477/2
f 476/476/2 477/477/2 478/478/2
f 478/478/2 477/477/2 479/479/2
f 478/478/2 479/479/2 480/480/2
usemtl metal.001
s 1
f 483/481/59 482/482/168 481/483/168
f 482/482/168 483/481/59 484/484/59
f 487/485/90 486/486/169 485/487/90
f 486/486/169 487/485/90 488/488/169
f 491/489/170 490/490/11 489/491/170
f 490/490/11 491/489/170 492/492/11
f 495/493/43 494/494/171 493/495/43
f 494/494/171 495/493/43 496/496/172
f 499/497/173 498/498/58 497/499/58
f 498/498/58 499/497/173 500/500/173
f 503/501/174 502/502/48 501/503/48
f 502/502/48 503/501/174 504/504/174
f 507/505/49 506/506/175 505/507/175
f 506/506/175 507/505/49 508/508/49
f 511/509/176 510/510/30 509/511/30
f 510/510/30 511/509/176 512/512/176
f 515/513/177 514/514/76 513/515/177
f 514/514/76 515/513/177 516/516/76
f 519/517/178 518/518/42 517/519/42
f 518/518/42 519/517/178 520/520/178
f 523/521/179 522/522/25 521/523/25
f 522/522/25 523/521/179 524/524/179
f 527/525/77 526/526/180 525/527/180
f 526/526/180 527/525/77 528/528/77
f 531/529/31 530/530/181 529/531/31
f 530/530/181 531/529/31 532/532/181
f 535/533/24 534/534/182 533/535/183
f 534/534/182 535/533/24 536/536/24
f 539/537/12 538/538/184 537/539/184
f 538/538/184 539/537/12 540/540/12
f 543/541/185 542/542/89 541/543/89
f 542/542/89 543/541/185 544/544/185
